hw3/p2/counter_8bit_output.txt
time	 clk	 reset	 enable	 load 	 dataIn 	 out	
VCD info: dumpfile counter_8bit_vcd.vcd opened for output.
0	 1	 0	 1	 0	 11010101	 xxxxxxxx	
10	 0	 0	 1	 0	 11010101	 xxxxxxxx	
20	 1	 1	 1	 0	 11010101	 00000000	
30	 0	 1	 1	 0	 11010101	 00000000	
35	 0	 0	 1	 0	 11010101	 00000000	
40	 1	 0	 1	 0	 11010101	 00000000	
50	 0	 0	 0	 0	 11010101	 00000001	
60	 1	 0	 0	 0	 11010101	 00000001	
70	 0	 0	 0	 0	 11010101	 00000010	
80	 1	 0	 0	 0	 11010101	 00000010	
90	 0	 0	 0	 0	 11010101	 00000011	
100	 1	 0	 0	 0	 11010101	 00000011	
110	 0	 0	 0	 0	 11010101	 00000100	
120	 1	 0	 0	 0	 11010101	 00000100	
130	 0	 0	 0	 0	 11010101	 00000101	
140	 1	 0	 0	 0	 11010101	 00000101	
150	 0	 0	 0	 0	 11010101	 00000110	
160	 1	 0	 0	 0	 11010101	 00000110	
170	 0	 0	 0	 0	 11010101	 00000111	
180	 1	 0	 0	 0	 11010101	 00000111	
190	 0	 0	 0	 0	 11010101	 00001000	
200	 1	 0	 0	 0	 11010101	 00001000	
210	 0	 0	 0	 0	 11010101	 00001001	
220	 1	 0	 0	 0	 11010101	 00001001	
230	 0	 0	 0	 0	 11010101	 00001010	
240	 1	 0	 0	 0	 11010101	 00001010	
250	 0	 0	 0	 0	 11010101	 00001011	
260	 1	 0	 0	 0	 11010101	 00001011	
270	 0	 0	 0	 0	 11010101	 00001100	
280	 1	 0	 0	 0	 11010101	 00001100	
290	 0	 0	 0	 0	 11010101	 00001101	
300	 1	 0	 0	 0	 11010101	 00001101	
310	 0	 0	 0	 0	 11010101	 00001110	
320	 1	 0	 0	 0	 11010101	 00001110	
330	 0	 0	 0	 0	 11010101	 00001111	
340	 1	 0	 0	 0	 11010101	 00001111	
350	 0	 0	 0	 0	 11010101	 00010000	
360	 1	 0	 0	 0	 11010101	 00010000	
370	 0	 0	 0	 0	 11010101	 00010001	
380	 1	 0	 0	 0	 11010101	 00010001	
390	 0	 0	 0	 0	 11010101	 00010010	
400	 1	 0	 0	 0	 11010101	 00010010	
410	 0	 0	 0	 0	 11010101	 00010011	
420	 1	 0	 0	 0	 11010101	 00010011	
430	 0	 0	 0	 0	 11010101	 00010100	
440	 1	 0	 0	 0	 11010101	 00010100	
450	 0	 0	 0	 0	 11010101	 00010101	
460	 1	 0	 0	 0	 11010101	 00010101	
470	 0	 0	 0	 0	 11010101	 00010110	
480	 1	 0	 0	 0	 11010101	 00010110	
490	 0	 0	 0	 0	 11010101	 00010111	
500	 1	 0	 0	 0	 11010101	 00010111	
510	 0	 0	 0	 0	 11010101	 00011000	
520	 1	 0	 0	 0	 11010101	 00011000	
530	 0	 0	 0	 0	 11010101	 00011001	
540	 1	 0	 0	 0	 11010101	 00011001	
550	 0	 0	 0	 0	 11010101	 00011010	
560	 1	 0	 0	 0	 11010101	 00011010	
570	 0	 0	 0	 0	 11010101	 00011011	
580	 1	 0	 0	 0	 11010101	 00011011	
590	 0	 0	 0	 0	 11010101	 00011100	
600	 1	 0	 0	 0	 11010101	 00011100	
610	 0	 0	 0	 0	 11010101	 00011101	
620	 1	 0	 0	 0	 11010101	 00011101	
630	 0	 0	 0	 0	 11010101	 00011110	
640	 1	 0	 0	 0	 11010101	 00011110	
650	 0	 0	 0	 0	 11010101	 00011111	
660	 1	 0	 0	 0	 11010101	 00011111	
670	 0	 0	 0	 0	 11010101	 00100000	
680	 1	 0	 0	 0	 11010101	 00100000	
690	 0	 0	 0	 0	 11010101	 00100001	
700	 1	 0	 0	 0	 11010101	 00100001	
710	 0	 0	 0	 0	 11010101	 00100010	
720	 1	 0	 0	 0	 11010101	 00100010	
730	 0	 0	 0	 0	 11010101	 00100011	
740	 1	 0	 0	 0	 11010101	 00100011	
750	 0	 0	 0	 0	 11010101	 00100100	
760	 1	 0	 0	 0	 11010101	 00100100	
770	 0	 0	 0	 0	 11010101	 00100101	
780	 1	 0	 0	 0	 11010101	 00100101	
790	 0	 0	 0	 0	 11010101	 00100110	
800	 1	 0	 0	 0	 11010101	 00100110	
810	 0	 0	 0	 0	 11010101	 00100111	
820	 1	 0	 0	 0	 11010101	 00100111	
830	 0	 0	 0	 0	 11010101	 00101000	
840	 1	 0	 0	 0	 11010101	 00101000	
850	 0	 0	 0	 0	 11010101	 00101001	
860	 1	 0	 0	 0	 11010101	 00101001	
870	 0	 0	 0	 0	 11010101	 00101010	
880	 1	 0	 0	 0	 11010101	 00101010	
890	 0	 0	 0	 0	 11010101	 00101011	
900	 1	 0	 0	 0	 11010101	 00101011	
910	 0	 0	 0	 0	 11010101	 00101100	
920	 1	 0	 0	 0	 11010101	 00101100	
930	 0	 0	 0	 0	 11010101	 00101101	
940	 1	 0	 0	 0	 11010101	 00101101	
950	 0	 0	 0	 0	 11010101	 00101110	
960	 1	 0	 0	 0	 11010101	 00101110	
970	 0	 0	 0	 0	 11010101	 00101111	
980	 1	 0	 0	 0	 11010101	 00101111	
990	 0	 0	 0	 0	 11010101	 00110000	
1000	 1	 0	 0	 0	 11010101	 00110000	
1010	 0	 0	 0	 0	 11010101	 00110001	
1020	 1	 0	 0	 0	 11010101	 00110001	
1030	 0	 0	 0	 0	 11010101	 00110010	
1040	 1	 0	 0	 0	 11010101	 00110010	
1050	 0	 0	 0	 0	 11010101	 00110011	
1060	 1	 0	 0	 0	 11010101	 00110011	
1070	 0	 0	 0	 0	 11010101	 00110100	
1080	 1	 0	 0	 0	 11010101	 00110100	
1090	 0	 0	 0	 0	 11010101	 00110101	
1100	 1	 0	 0	 0	 11010101	 00110101	
1110	 0	 0	 0	 0	 11010101	 00110110	
1120	 1	 0	 0	 0	 11010101	 00110110	
1130	 0	 0	 0	 0	 11010101	 00110111	
1140	 1	 0	 0	 0	 11010101	 00110111	
1150	 0	 0	 0	 0	 11010101	 00111000	
1160	 1	 0	 0	 0	 11010101	 00111000	
1170	 0	 0	 0	 0	 11010101	 00111001	
1180	 1	 0	 0	 0	 11010101	 00111001	
1190	 0	 0	 0	 0	 11010101	 00111010	
1200	 1	 0	 0	 0	 11010101	 00111010	
1210	 0	 0	 0	 0	 11010101	 00111011	
1220	 1	 0	 0	 0	 11010101	 00111011	
1230	 0	 0	 0	 0	 11010101	 00111100	
1240	 1	 0	 0	 0	 11010101	 00111100	
1250	 0	 0	 0	 0	 11010101	 00111101	
1260	 1	 0	 0	 0	 11010101	 00111101	
1270	 0	 0	 0	 0	 11010101	 00111110	
1280	 1	 0	 0	 0	 11010101	 00111110	
1290	 0	 0	 0	 0	 11010101	 00111111	
1300	 1	 0	 0	 0	 11010101	 00111111	
1310	 0	 0	 0	 0	 11010101	 01000000	
1320	 1	 0	 0	 0	 11010101	 01000000	
1330	 0	 0	 0	 0	 11010101	 01000001	
1340	 1	 0	 0	 0	 11010101	 01000001	
1350	 0	 0	 0	 0	 11010101	 01000010	
1360	 1	 0	 0	 0	 11010101	 01000010	
1370	 0	 0	 0	 0	 11010101	 01000011	
1380	 1	 0	 0	 0	 11010101	 01000011	
1390	 0	 0	 0	 0	 11010101	 01000100	
1400	 1	 0	 0	 0	 11010101	 01000100	
1410	 0	 0	 0	 0	 11010101	 01000101	
1420	 1	 0	 0	 0	 11010101	 01000101	
1430	 0	 0	 0	 0	 11010101	 01000110	
1440	 1	 0	 0	 0	 11010101	 01000110	
1450	 0	 0	 0	 0	 11010101	 01000111	
1460	 1	 0	 0	 0	 11010101	 01000111	
1470	 0	 0	 0	 0	 11010101	 01001000	
1480	 1	 0	 0	 0	 11010101	 01001000	
1490	 0	 0	 0	 0	 11010101	 01001001	
1500	 1	 0	 0	 0	 11010101	 01001001	
1510	 0	 0	 0	 0	 11010101	 01001010	
1520	 1	 0	 0	 0	 11010101	 01001010	
1530	 0	 0	 0	 0	 11010101	 01001011	
1540	 1	 0	 0	 0	 11010101	 01001011	
1550	 0	 0	 0	 0	 11010101	 01001100	
1560	 1	 0	 0	 0	 11010101	 01001100	
1570	 0	 0	 0	 0	 11010101	 01001101	
1580	 1	 0	 0	 0	 11010101	 01001101	
1590	 0	 0	 0	 0	 11010101	 01001110	
1600	 1	 0	 0	 0	 11010101	 01001110	
1610	 0	 0	 0	 0	 11010101	 01001111	
1620	 1	 0	 0	 0	 11010101	 01001111	
1630	 0	 0	 0	 0	 11010101	 01010000	
1640	 1	 0	 0	 0	 11010101	 01010000	
1650	 0	 0	 0	 0	 11010101	 01010001	
1660	 1	 0	 0	 0	 11010101	 01010001	
1670	 0	 0	 0	 0	 11010101	 01010010	
1680	 1	 0	 0	 0	 11010101	 01010010	
1690	 0	 0	 0	 0	 11010101	 01010011	
1700	 1	 0	 0	 0	 11010101	 01010011	
1710	 0	 0	 0	 0	 11010101	 01010100	
1720	 1	 0	 0	 0	 11010101	 01010100	
1730	 0	 0	 0	 0	 11010101	 01010101	
1740	 1	 0	 0	 0	 11010101	 01010101	
1750	 0	 0	 0	 0	 11010101	 01010110	
1760	 1	 0	 0	 0	 11010101	 01010110	
1770	 0	 0	 0	 0	 11010101	 01010111	
1780	 1	 0	 0	 0	 11010101	 01010111	
1790	 0	 0	 0	 0	 11010101	 01011000	
1800	 1	 0	 0	 0	 11010101	 01011000	
1810	 0	 0	 0	 0	 11010101	 01011001	
1820	 1	 0	 0	 0	 11010101	 01011001	
1830	 0	 0	 0	 0	 11010101	 01011010	
1840	 1	 0	 0	 0	 11010101	 01011010	
1850	 0	 0	 0	 0	 11010101	 01011011	
1860	 1	 0	 0	 0	 11010101	 01011011	
1870	 0	 0	 0	 0	 11010101	 01011100	
1880	 1	 0	 0	 0	 11010101	 01011100	
1890	 0	 0	 0	 0	 11010101	 01011101	
1900	 1	 0	 0	 0	 11010101	 01011101	
1910	 0	 0	 0	 0	 11010101	 01011110	
1920	 1	 0	 0	 0	 11010101	 01011110	
1930	 0	 0	 0	 0	 11010101	 01011111	
1940	 1	 0	 0	 0	 11010101	 01011111	
1950	 0	 0	 0	 0	 11010101	 01100000	
1960	 1	 0	 0	 0	 11010101	 01100000	
1970	 0	 0	 0	 0	 11010101	 01100001	
1980	 1	 0	 0	 0	 11010101	 01100001	
1990	 0	 0	 0	 0	 11010101	 01100010	
2000	 1	 0	 0	 0	 11010101	 01100010	
2010	 0	 0	 0	 0	 11010101	 01100011	
2020	 1	 0	 0	 0	 11010101	 01100011	
2030	 0	 0	 0	 0	 11010101	 01100100	
2040	 1	 0	 0	 0	 11010101	 01100100	
2050	 0	 0	 0	 0	 11010101	 01100101	
2060	 1	 0	 0	 0	 11010101	 01100101	
2070	 0	 0	 0	 0	 11010101	 01100110	
2080	 1	 0	 0	 0	 11010101	 01100110	
2090	 0	 0	 0	 0	 11010101	 01100111	
2100	 1	 0	 0	 0	 11010101	 01100111	
2110	 0	 0	 0	 0	 11010101	 01101000	
2120	 1	 0	 0	 0	 11010101	 01101000	
2130	 0	 0	 0	 0	 11010101	 01101001	
2140	 1	 0	 0	 0	 11010101	 01101001	
2150	 0	 0	 0	 0	 11010101	 01101010	
2160	 1	 0	 0	 0	 11010101	 01101010	
2170	 0	 0	 0	 0	 11010101	 01101011	
2180	 1	 0	 0	 0	 11010101	 01101011	
2190	 0	 0	 0	 0	 11010101	 01101100	
2200	 1	 0	 0	 0	 11010101	 01101100	
2210	 0	 0	 0	 0	 11010101	 01101101	
2220	 1	 0	 0	 0	 11010101	 01101101	
2230	 0	 0	 0	 0	 11010101	 01101110	
2240	 1	 0	 0	 0	 11010101	 01101110	
2250	 0	 0	 0	 0	 11010101	 01101111	
2260	 1	 0	 0	 0	 11010101	 01101111	
2270	 0	 0	 0	 0	 11010101	 01110000	
2280	 1	 0	 0	 0	 11010101	 01110000	
2290	 0	 0	 0	 0	 11010101	 01110001	
2300	 1	 0	 0	 0	 11010101	 01110001	
2310	 0	 0	 0	 0	 11010101	 01110010	
2320	 1	 0	 0	 0	 11010101	 01110010	
2330	 0	 0	 0	 0	 11010101	 01110011	
2340	 1	 0	 0	 0	 11010101	 01110011	
2350	 0	 0	 0	 0	 11010101	 01110100	
2360	 1	 0	 0	 0	 11010101	 01110100	
2370	 0	 0	 0	 0	 11010101	 01110101	
2380	 1	 0	 0	 0	 11010101	 01110101	
2390	 0	 0	 0	 0	 11010101	 01110110	
2400	 1	 0	 0	 0	 11010101	 01110110	
2410	 0	 0	 0	 0	 11010101	 01110111	
2420	 1	 0	 0	 0	 11010101	 01110111	
2430	 0	 0	 0	 0	 11010101	 01111000	
2440	 1	 0	 0	 0	 11010101	 01111000	
2450	 0	 0	 0	 0	 11010101	 01111001	
2460	 1	 0	 0	 0	 11010101	 01111001	
2470	 0	 0	 0	 0	 11010101	 01111010	
2480	 1	 0	 0	 0	 11010101	 01111010	
2490	 0	 0	 0	 0	 11010101	 01111011	
2500	 1	 0	 0	 0	 11010101	 01111011	
2510	 0	 0	 0	 0	 11010101	 01111100	
2520	 1	 0	 0	 0	 11010101	 01111100	
2530	 0	 0	 0	 0	 11010101	 01111101	
2540	 1	 0	 0	 0	 11010101	 01111101	
2550	 0	 0	 0	 0	 11010101	 01111110	
2560	 1	 0	 0	 0	 11010101	 01111110	
2570	 0	 0	 0	 0	 11010101	 01111111	
2580	 1	 0	 0	 0	 11010101	 01111111	
2590	 0	 0	 0	 0	 11010101	 10000000	
2600	 1	 0	 0	 0	 11010101	 10000000	
2610	 0	 0	 0	 0	 11010101	 10000001	
2620	 1	 0	 0	 0	 11010101	 10000001	
2630	 0	 0	 0	 0	 11010101	 10000010	
2640	 1	 0	 0	 0	 11010101	 10000010	
2650	 0	 0	 0	 0	 11010101	 10000011	
2660	 1	 0	 0	 0	 11010101	 10000011	
2670	 0	 0	 0	 0	 11010101	 10000100	
2680	 1	 0	 0	 0	 11010101	 10000100	
2690	 0	 0	 0	 0	 11010101	 10000101	
2700	 1	 0	 0	 0	 11010101	 10000101	
2710	 0	 0	 0	 0	 11010101	 10000110	
2720	 1	 0	 0	 0	 11010101	 10000110	
2730	 0	 0	 0	 0	 11010101	 10000111	
2740	 1	 0	 0	 0	 11010101	 10000111	
2750	 0	 0	 0	 0	 11010101	 10001000	
2760	 1	 0	 0	 0	 11010101	 10001000	
2770	 0	 0	 0	 0	 11010101	 10001001	
2780	 1	 0	 0	 0	 11010101	 10001001	
2790	 0	 0	 0	 0	 11010101	 10001010	
2800	 1	 0	 0	 0	 11010101	 10001010	
2810	 0	 0	 0	 0	 11010101	 10001011	
2820	 1	 0	 0	 0	 11010101	 10001011	
2830	 0	 0	 0	 0	 11010101	 10001100	
2840	 1	 0	 0	 0	 11010101	 10001100	
2850	 0	 0	 0	 0	 11010101	 10001101	
2860	 1	 0	 0	 0	 11010101	 10001101	
2870	 0	 0	 0	 0	 11010101	 10001110	
2880	 1	 0	 0	 0	 11010101	 10001110	
2890	 0	 0	 0	 0	 11010101	 10001111	
2900	 1	 0	 0	 0	 11010101	 10001111	
2910	 0	 0	 0	 0	 11010101	 10010000	
2920	 1	 0	 0	 0	 11010101	 10010000	
2930	 0	 0	 0	 0	 11010101	 10010001	
2940	 1	 0	 0	 0	 11010101	 10010001	
2950	 0	 0	 0	 0	 11010101	 10010010	
2960	 1	 0	 0	 0	 11010101	 10010010	
2970	 0	 0	 0	 0	 11010101	 10010011	
2980	 1	 0	 0	 0	 11010101	 10010011	
2990	 0	 0	 0	 0	 11010101	 10010100	
3000	 1	 0	 0	 0	 11010101	 10010100	
3010	 0	 0	 0	 0	 11010101	 10010101	
3020	 1	 0	 0	 0	 11010101	 10010101	
3030	 0	 0	 0	 0	 11010101	 10010110	
3040	 1	 0	 0	 0	 11010101	 10010110	
3050	 0	 0	 0	 0	 11010101	 10010111	
3060	 1	 0	 0	 0	 11010101	 10010111	
3070	 0	 0	 0	 0	 11010101	 10011000	
3080	 1	 0	 0	 0	 11010101	 10011000	
3090	 0	 0	 0	 0	 11010101	 10011001	
3100	 1	 0	 0	 0	 11010101	 10011001	
3110	 0	 0	 0	 0	 11010101	 10011010	
3120	 1	 0	 0	 0	 11010101	 10011010	
3130	 0	 0	 0	 0	 11010101	 10011011	
3140	 1	 0	 0	 0	 11010101	 10011011	
3150	 0	 0	 0	 0	 11010101	 10011100	
3160	 1	 0	 0	 0	 11010101	 10011100	
3170	 0	 0	 0	 0	 11010101	 10011101	
3180	 1	 0	 0	 0	 11010101	 10011101	
3190	 0	 0	 0	 0	 11010101	 10011110	
3200	 1	 0	 0	 0	 11010101	 10011110	
3210	 0	 0	 0	 0	 11010101	 10011111	
3220	 1	 0	 0	 0	 11010101	 10011111	
3230	 0	 0	 0	 0	 11010101	 10100000	
3240	 1	 0	 0	 0	 11010101	 10100000	
3250	 0	 0	 0	 0	 11010101	 10100001	
3260	 1	 0	 0	 0	 11010101	 10100001	
3270	 0	 0	 0	 0	 11010101	 10100010	
3280	 1	 0	 0	 0	 11010101	 10100010	
3290	 0	 0	 0	 0	 11010101	 10100011	
3300	 1	 0	 0	 0	 11010101	 10100011	
3310	 0	 0	 0	 0	 11010101	 10100100	
3320	 1	 0	 0	 0	 11010101	 10100100	
3330	 0	 0	 0	 0	 11010101	 10100101	
3340	 1	 0	 0	 0	 11010101	 10100101	
3350	 0	 0	 0	 0	 11010101	 10100110	
3360	 1	 0	 0	 0	 11010101	 10100110	
3370	 0	 0	 0	 0	 11010101	 10100111	
3380	 1	 0	 0	 0	 11010101	 10100111	
3390	 0	 0	 0	 0	 11010101	 10101000	
3400	 1	 0	 0	 0	 11010101	 10101000	
3410	 0	 0	 0	 0	 11010101	 10101001	
3420	 1	 0	 0	 0	 11010101	 10101001	
3430	 0	 0	 0	 0	 11010101	 10101010	
3440	 1	 0	 0	 0	 11010101	 10101010	
3450	 0	 0	 0	 0	 11010101	 10101011	
3460	 1	 0	 0	 0	 11010101	 10101011	
3470	 0	 0	 0	 0	 11010101	 10101100	
3480	 1	 0	 0	 0	 11010101	 10101100	
3490	 0	 0	 0	 0	 11010101	 10101101	
3500	 1	 0	 0	 0	 11010101	 10101101	
3510	 0	 0	 0	 0	 11010101	 10101110	
3520	 1	 0	 0	 0	 11010101	 10101110	
3530	 0	 0	 0	 0	 11010101	 10101111	
3540	 1	 0	 0	 0	 11010101	 10101111	
3550	 0	 0	 0	 0	 11010101	 10110000	
3560	 1	 0	 0	 0	 11010101	 10110000	
3570	 0	 0	 0	 0	 11010101	 10110001	
3580	 1	 0	 0	 0	 11010101	 10110001	
3590	 0	 0	 0	 0	 11010101	 10110010	
3600	 1	 0	 0	 0	 11010101	 10110010	
3610	 0	 0	 0	 0	 11010101	 10110011	
3620	 1	 0	 0	 0	 11010101	 10110011	
3630	 0	 0	 0	 0	 11010101	 10110100	
3640	 1	 0	 0	 0	 11010101	 10110100	
3650	 0	 0	 0	 0	 11010101	 10110101	
3660	 1	 0	 0	 0	 11010101	 10110101	
3670	 0	 0	 0	 0	 11010101	 10110110	
3680	 1	 0	 0	 0	 11010101	 10110110	
3690	 0	 0	 0	 0	 11010101	 10110111	
3700	 1	 0	 0	 0	 11010101	 10110111	
3710	 0	 0	 0	 0	 11010101	 10111000	
3720	 1	 0	 0	 0	 11010101	 10111000	
3730	 0	 0	 0	 0	 11010101	 10111001	
3740	 1	 0	 0	 0	 11010101	 10111001	
3750	 0	 0	 0	 0	 11010101	 10111010	
3760	 1	 0	 0	 0	 11010101	 10111010	
3770	 0	 0	 0	 0	 11010101	 10111011	
3780	 1	 0	 0	 0	 11010101	 10111011	
3790	 0	 0	 0	 0	 11010101	 10111100	
3800	 1	 0	 0	 0	 11010101	 10111100	
3810	 0	 0	 0	 0	 11010101	 10111101	
3820	 1	 0	 0	 0	 11010101	 10111101	
3830	 0	 0	 0	 0	 11010101	 10111110	
3840	 1	 0	 0	 0	 11010101	 10111110	
3850	 0	 0	 0	 0	 11010101	 10111111	
3860	 1	 0	 0	 0	 11010101	 10111111	
3870	 0	 0	 0	 0	 11010101	 11000000	
3880	 1	 0	 0	 0	 11010101	 11000000	
3890	 0	 0	 0	 0	 11010101	 11000001	
3900	 1	 0	 0	 0	 11010101	 11000001	
3910	 0	 0	 0	 0	 11010101	 11000010	
3920	 1	 0	 0	 0	 11010101	 11000010	
3930	 0	 0	 0	 0	 11010101	 11000011	
3940	 1	 0	 0	 0	 11010101	 11000011	
3950	 0	 0	 0	 0	 11010101	 11000100	
3960	 1	 0	 0	 0	 11010101	 11000100	
3970	 0	 0	 0	 0	 11010101	 11000101	
3980	 1	 0	 0	 0	 11010101	 11000101	
3990	 0	 0	 0	 0	 11010101	 11000110	
4000	 1	 0	 0	 0	 11010101	 11000110	
4010	 0	 0	 0	 0	 11010101	 11000111	
4020	 1	 0	 0	 0	 11010101	 11000111	
4030	 0	 0	 0	 0	 11010101	 11001000	
4040	 1	 0	 0	 0	 11010101	 11001000	
4050	 0	 0	 0	 0	 11010101	 11001001	
4060	 1	 0	 0	 0	 11010101	 11001001	
4070	 0	 0	 0	 0	 11010101	 11001010	
4080	 1	 0	 0	 0	 11010101	 11001010	
4090	 0	 0	 0	 0	 11010101	 11001011	
4100	 1	 0	 0	 0	 11010101	 11001011	
4110	 0	 0	 0	 0	 11010101	 11001100	
4120	 1	 0	 0	 0	 11010101	 11001100	
4130	 0	 0	 0	 0	 11010101	 11001101	
4140	 1	 0	 0	 0	 11010101	 11001101	
4150	 0	 0	 0	 0	 11010101	 11001110	
4160	 1	 0	 0	 0	 11010101	 11001110	
4170	 0	 0	 0	 0	 11010101	 11001111	
4180	 1	 0	 0	 0	 11010101	 11001111	
4190	 0	 0	 0	 0	 11010101	 11010000	
4200	 1	 0	 0	 0	 11010101	 11010000	
4210	 0	 0	 0	 0	 11010101	 11010001	
4220	 1	 0	 0	 0	 11010101	 11010001	
4230	 0	 0	 0	 0	 11010101	 11010010	
4240	 1	 0	 0	 0	 11010101	 11010010	
4250	 0	 0	 0	 0	 11010101	 11010011	
4260	 1	 0	 0	 0	 11010101	 11010011	
4270	 0	 0	 0	 0	 11010101	 11010100	
4280	 1	 0	 0	 0	 11010101	 11010100	
4290	 0	 0	 0	 0	 11010101	 11010101	
4300	 1	 0	 0	 0	 11010101	 11010101	
4310	 0	 0	 0	 0	 11010101	 11010110	
4320	 1	 0	 0	 0	 11010101	 11010110	
4330	 0	 0	 0	 0	 11010101	 11010111	
4340	 1	 0	 0	 0	 11010101	 11010111	
4350	 0	 0	 0	 0	 11010101	 11011000	
4360	 1	 0	 0	 0	 11010101	 11011000	
4370	 0	 0	 0	 0	 11010101	 11011001	
4380	 1	 0	 0	 0	 11010101	 11011001	
4390	 0	 0	 0	 0	 11010101	 11011010	
4400	 1	 0	 0	 0	 11010101	 11011010	
4410	 0	 0	 0	 0	 11010101	 11011011	
4420	 1	 0	 0	 0	 11010101	 11011011	
4430	 0	 0	 0	 0	 11010101	 11011100	
4440	 1	 0	 0	 0	 11010101	 11011100	
4450	 0	 0	 0	 0	 11010101	 11011101	
4460	 1	 0	 0	 0	 11010101	 11011101	
4470	 0	 0	 0	 0	 11010101	 11011110	
4480	 1	 0	 0	 0	 11010101	 11011110	
4490	 0	 0	 0	 0	 11010101	 11011111	
4500	 1	 0	 0	 0	 11010101	 11011111	
4510	 0	 0	 0	 0	 11010101	 11100000	
4520	 1	 0	 0	 0	 11010101	 11100000	
4530	 0	 0	 0	 0	 11010101	 11100001	
4540	 1	 0	 0	 0	 11010101	 11100001	
4550	 0	 0	 0	 0	 11010101	 11100010	
4560	 1	 0	 0	 0	 11010101	 11100010	
4570	 0	 0	 0	 0	 11010101	 11100011	
4580	 1	 0	 0	 0	 11010101	 11100011	
4590	 0	 0	 0	 0	 11010101	 11100100	
4600	 1	 0	 0	 0	 11010101	 11100100	
4610	 0	 0	 0	 0	 11010101	 11100101	
4620	 1	 0	 0	 0	 11010101	 11100101	
4630	 0	 0	 0	 0	 11010101	 11100110	
4640	 1	 0	 0	 0	 11010101	 11100110	
4650	 0	 0	 0	 0	 11010101	 11100111	
4660	 1	 0	 0	 0	 11010101	 11100111	
4670	 0	 0	 0	 0	 11010101	 11101000	
4680	 1	 0	 0	 0	 11010101	 11101000	
4690	 0	 0	 0	 0	 11010101	 11101001	
4700	 1	 0	 0	 0	 11010101	 11101001	
4710	 0	 0	 0	 0	 11010101	 11101010	
4720	 1	 0	 0	 0	 11010101	 11101010	
4730	 0	 0	 0	 0	 11010101	 11101011	
4740	 1	 0	 0	 0	 11010101	 11101011	
4750	 0	 0	 0	 0	 11010101	 11101100	
4760	 1	 0	 0	 0	 11010101	 11101100	
4770	 0	 0	 0	 0	 11010101	 11101101	
4780	 1	 0	 0	 0	 11010101	 11101101	
4790	 0	 0	 0	 0	 11010101	 11101110	
4800	 1	 0	 0	 0	 11010101	 11101110	
4810	 0	 0	 0	 0	 11010101	 11101111	
4820	 1	 0	 0	 0	 11010101	 11101111	
4830	 0	 0	 0	 0	 11010101	 11110000	
4840	 1	 0	 0	 0	 11010101	 11110000	
4850	 0	 0	 0	 0	 11010101	 11110001	
4860	 1	 0	 0	 0	 11010101	 11110001	
4870	 0	 0	 0	 0	 11010101	 11110010	
4880	 1	 0	 0	 0	 11010101	 11110010	
4890	 0	 0	 0	 0	 11010101	 11110011	
4900	 1	 0	 0	 0	 11010101	 11110011	
4910	 0	 0	 0	 0	 11010101	 11110100	
4920	 1	 0	 0	 0	 11010101	 11110100	
4930	 0	 0	 0	 0	 11010101	 11110101	
4940	 1	 0	 0	 0	 11010101	 11110101	
4950	 0	 0	 0	 0	 11010101	 11110110	
4960	 1	 0	 0	 0	 11010101	 11110110	
4970	 0	 0	 0	 0	 11010101	 11110111	
4980	 1	 0	 0	 0	 11010101	 11110111	
4990	 0	 0	 0	 0	 11010101	 11111000	
5000	 1	 0	 0	 0	 11010101	 11111000	
5010	 0	 0	 0	 0	 11010101	 11111001	
5020	 1	 0	 0	 0	 11010101	 11111001	
5030	 0	 0	 0	 0	 11010101	 11111010	
5040	 1	 0	 0	 0	 11010101	 11111010	
5050	 0	 0	 0	 0	 11010101	 11111011	
5060	 1	 0	 0	 0	 11010101	 11111011	
5070	 0	 0	 0	 0	 11010101	 11111100	
5080	 1	 0	 0	 0	 11010101	 11111100	
5090	 0	 0	 0	 0	 11010101	 11111101	
5100	 1	 0	 0	 0	 11010101	 11111101	
5110	 0	 0	 0	 0	 11010101	 11111110	
5120	 1	 0	 0	 0	 11010101	 11111110	
5130	 0	 0	 0	 0	 11010101	 11111111	
5140	 1	 0	 0	 0	 11010101	 11111111	
5150	 0	 0	 0	 0	 11010101	 00000000	
5160	 1	 0	 0	 1	 11010101	 11010101	
5170	 0	 0	 0	 1	 11010101	 11010101	
5180	 1	 0	 0	 0	 11010101	 11010101	
5190	 0	 0	 0	 0	 11010101	 11010110	
5200	 1	 0	 0	 0	 11010101	 11010110	
5210	 0	 0	 0	 0	 11010101	 11010111	
5215	 0	 1	 0	 0	 11010101	 00000000	
5220	 1	 1	 0	 0	 11010101	 00000000	
5230	 0	 0	 0	 0	 11010101	 00000001	
5240	 1	 0	 0	 0	 11010101	 00000001	
5250	 0	 0	 0	 0	 11010101	 00000010	
5260	 1	 0	 0	 0	 11010101	 00000010	
5270	 0	 0	 0	 0	 11010101	 00000011	
5280	 1	 0	 0	 0	 11010101	 00000011	
5290	 0	 0	 0	 0	 11010101	 00000100	
5300	 1	 0	 0	 0	 11010101	 00000100	
5310	 0	 0	 0	 0	 11010101	 00000101	
5320	 1	 0	 0	 0	 11010101	 00000101	
5330	 0	 0	 0	 0	 11010101	 00000110	
5340	 1	 0	 0	 0	 11010101	 00000110	
5350	 0	 0	 0	 0	 11010101	 00000111	
5360	 1	 0	 0	 0	 11010101	 00000111	
5370	 0	 0	 0	 0	 11010101	 00001000	
5380	 1	 0	 0	 0	 11010101	 00001000	
5390	 0	 0	 0	 0	 11010101	 00001001	
5400	 1	 0	 0	 0	 11010101	 00001001	
5410	 0	 0	 0	 0	 11010101	 00001010	
5420	 1	 0	 0	 0	 11010101	 00001010	
5430	 0	 0	 0	 0	 11010101	 00001011	
5440	 1	 0	 0	 0	 11010101	 00001011	
5450	 0	 0	 0	 0	 11010101	 00001100	
5460	 1	 0	 0	 0	 11010101	 00001100	
5470	 0	 0	 0	 0	 11010101	 00001101	
5480	 1	 0	 0	 0	 11010101	 00001101	
5490	 0	 0	 0	 0	 11010101	 00001110	
5500	 1	 0	 0	 0	 11010101	 00001110	
5510	 0	 0	 0	 0	 11010101	 00001111	
5520	 1	 0	 0	 0	 11010101	 00001111	
5530	 0	 0	 0	 0	 11010101	 00010000	
5540	 1	 0	 0	 0	 11010101	 00010000	
5550	 0	 0	 0	 0	 11010101	 00010001	
5560	 1	 0	 0	 0	 11010101	 00010001	
5570	 0	 0	 0	 0	 11010101	 00010010	
5580	 1	 0	 0	 0	 11010101	 00010010	
5590	 0	 0	 0	 0	 11010101	 00010011	
5600	 1	 0	 0	 0	 11010101	 00010011	
5610	 0	 0	 0	 0	 11010101	 00010100	
5620	 1	 0	 0	 0	 11010101	 00010100	
5630	 0	 0	 0	 0	 11010101	 00010101	
5640	 1	 0	 0	 0	 11010101	 00010101	
5650	 0	 0	 0	 0	 11010101	 00010110	
5660	 1	 0	 0	 0	 11010101	 00010110	
5670	 0	 0	 0	 0	 11010101	 00010111	
5680	 1	 0	 0	 0	 11010101	 00010111	
5690	 0	 0	 0	 0	 11010101	 00011000	
5700	 1	 0	 0	 0	 11010101	 00011000	
5710	 0	 0	 0	 0	 11010101	 00011001	
5720	 1	 0	 0	 0	 11010101	 00011001	
5730	 0	 0	 0	 0	 11010101	 00011010	
5740	 1	 0	 0	 0	 11010101	 00011010	
